<?xml version="1.0" encoding="utf-8"?>
<!-- Generator: Adobe Illustrator 20.1.0, SVG Export Plug-In . SVG Version: 6.00 Build 0)  -->
<svg version="1.1" id="Layer_1" xmlns="http://www.w3.org/2000/svg" xmlns:xlink="http://www.w3.org/1999/xlink" x="0px" y="0px"
	 viewBox="0 0 50 50" style="enable-background:new 0 0 50 50;" xml:space="preserve">
<style type="text/css">
	.st0{fill:#003272;}
</style>
<g>
	<path class="st0" d="M18.1,17.7h3.4v3.4h-3.4V17.7z M29,21.1h3.4v-3.4H29V21.1z M23.5,21.1h3.4v-3.4h-3.4V21.1z M18.1,26.5h3.4
		v-3.4h-3.4V26.5z M29,26.5h3.4v-3.4H29V26.5z M23.5,26.5h3.4v-3.4h-3.4V26.5z M18.1,31.9h3.4v-3.4h-3.4V31.9z M29,31.9h3.4v-3.4H29
		V31.9z M23.5,31.9h3.4v-3.4h-3.4V31.9z"/>
</g>
</svg>
