<?xml version="1.0" encoding="utf-8"?>
<!-- Generator: Adobe Illustrator 19.1.1, SVG Export Plug-In . SVG Version: 6.00 Build 0)  -->
<svg version="1.1" id="Layer_1" xmlns="http://www.w3.org/2000/svg" xmlns:xlink="http://www.w3.org/1999/xlink" x="0px" y="0px"
	 viewBox="0 0 168.6 130.3" style="enable-background:new 0 0 168.6 130.3;" xml:space="preserve">
<style type="text/css">
	.st0{fill:#003171;}
</style>
<path class="st0" d="M129,77.8l-13.5-21.1l-24.9-2.3l4.7-7.7l24.9,2.3l13.5,21.1L129,77.8z M125.1,84.2l-13.5-21.1l-24.9-2.3
	l-4.7,7.7l24.9,2.3l13.5,21.1L125.1,84.2z M116.8,97.9l-13.5-21.1l-24.9-2.3l-4.7,7.7l24.9,2.3l13.5,21.1L116.8,97.9z M146.7,4.8
	L108.3,0l-7,11.5L88.7,4.2L0,68.6l41.4,57L70,104.9l41.8,25.4l56.8-93.7L146.7,4.8z M43.2,114.5l-32-44.1l78-56.6l8,4.6L76.8,52
	l-18.4-9.7l-7.3,5.3l21.5,11.4l-4.9,8l-0.6-3.2L45.1,52l-7.3,5.3L59.9,69l1.5,8.4l-5,8.2l-2.2-12.5L32.1,61.4l-7.3,5.3L47,78.4
	l4.3,24.7l7.1-5.2l4.2,2.5L43.2,114.5z M109.1,119.3L62.5,91l50-82.4l29.6,3.7l17,24.6L109.1,119.3z"/>
</svg>
