{
  "name": "",
  "css_prefix_text": "icon-",
  "css_use_suffix": false,
  "hinting": true,
  "units_per_em": 1000,
  "ascent": 850,
  "glyphs": [
    {
      "uid": "6cc7af3e5b55720bcb6ef68372ce24be",
      "css": "facebook",
      "code": 62000,
      "src": "fontawesome"
    },
    {
      "uid": "b8d0c7d76e87b94882329a88e8e43d3d",
      "css": "google",
      "code": 61653,
      "src": "fontawesome"
    },
    {
      "uid": "8fa75d829f48fb3b322bf981bfe3d990",
      "css": "gwarancja_icon",
      "code": 59392,
      "src": "custom_icons",
      "selected": true,
      "svg": {
        "path": "M458.5-12.7C441.8-14.5 428.1-9.7 412 0 407.7 12.9 403.5 12.9 399.2 12.9 386.3 21.5 377.7 25.7 364.8 25.7 351.9 25.7 343.3 21.5 330.4 12.9 330.4 12.9 326.2 8.6 317.6 4.3 291.9-4.3 274.7-8.6 249 0 223.2 8.6 210.3 25.7 197.4 51.5 193.1 64.3 193.1 64.3 188.9 72.9 184.6 77.2 180.3 81.5 171.7 85.8 158.8 94.4 154.5 94.5 128.8 98.7 103 103 85.8 107.3 64.4 133 51.5 150.2 47.2 167.4 51.5 188.9 51.5 197.4 51.5 197.4 55.8 210.3 60.1 227.5 60.1 236.1 55.8 249 51.5 261.8 47.2 270.4 34.4 279 34.4 279 30 283.2 25.7 283.2L25.7 287.5C4.3 309-4.3 326.1-4.3 351.9-4.3 377.6 4.3 394.8 25.7 416.3L30 420.6C34.3 420.6 34.4 424.9 38.6 424.9 47.2 433.5 55.8 442 55.8 454.9 60.1 467.8 60.1 476.4 55.8 493.6 51.5 506.4 51.5 510.7 51.5 515 47.2 536.5 55.8 553.7 64.4 570.8 81.5 592.3 103 600.9 133 600.9L141.7 600.9 25.7 862.6 25.7 866.9 25.7 871.3 25.7 875.6 25.7 879.8C25.7 879.8 25.7 884.1 30 884.1 30 884.1 30.1 888.4 34.4 888.4 34.4 888.4 38.6 888.4 38.6 892.7L42.9 892.7 47.2 892.7 51.5 892.7 184.6 879.8 261.8 987.1 266.1 991.4C266.1 991.4 270.4 991.4 270.4 995.7L274.7 995.7 279 995.7 283.2 995.7 287.5 995.7C287.5 995.7 291.9 995.7 291.9 991.4L296.2 991.4 300.4 987.1C300.4 987.1 300.4 982.8 304.7 982.8L364.8 854.1 420.6 982.8C420.6 982.8 420.6 987.1 424.9 987.1L429.2 991.4 433.5 991.4C433.5 991.4 437.7 991.4 437.7 995.7L442.1 995.7 446.4 995.7 450.6 995.7 454.9 995.7C454.9 995.7 459.2 995.7 459.2 991.4L463.6 987.1 545 879.8 678.1 892.7 682.4 892.7 686.7 892.7 691 892.7 695.2 892.7C695.2 892.7 699.6 892.7 699.6 888.4L703.9 884.1C703.9 884.1 703.9 879.8 708.2 879.8L708.2 875.6 708.2 871.3 587.9 600.9 596.6 600.9C626.6 596.6 643.8 592.2 665.2 566.5 678.1 549.3 682.4 532.2 678.1 510.7 678.1 502.2 678.1 502.2 673.8 489.3 669.5 472.1 669.5 463.5 673.8 450.6 678.1 437.8 682.4 433.5 691 420.6L699.6 412 703.9 407.7C725.3 390.6 729.6 373.4 729.6 347.6 729.6 321.9 721.1 304.7 699.6 283.2 695.3 283.2 691 274.7 691 274.7 682.4 266.1 673.8 257.5 673.8 244.6 669.5 231.7 669.5 223.2 673.8 206 678.1 193.2 678.1 188.9 678.1 184.6 682.4 163.1 673.8 145.9 665.2 128.8 648.1 103 630.9 98.7 596.6 94.4 575.1 94.4 566.5 90.1 553.7 81.6 545.1 77.3 540.8 73 536.5 64.4 532.2 60.1 532.2 55.8 527.9 42.9 515.1 17.2 506.4 0 476.4-8.6 469.9-10.7 464.1-12.1 458.5-12.7ZM459.2 47.2C467.8 51.5 472.1 51.5 476.4 68.7 485 85.8 485 90.2 489.3 98.7 497.9 111.6 506.4 120.2 519.3 128.8 540.8 145.9 557.9 150.2 587.9 150.2 609.4 150.2 609.5 154.5 618 163.1 622.3 171.7 622.3 175.9 622.3 180.2 622.3 184.5 622.3 184.5 618 197.4 613.8 223.2 609.5 240.3 618 266.1 626.6 287.5 635.2 300.4 652.3 317.6 656.6 321.9 660.9 326.2 665.2 326.2 673.8 334.7 678.1 339 678.1 347.6 678.1 356.2 678.1 360.5 665.2 369.1 660.9 369.1 660.9 373.4 652.3 377.7 635.2 394.9 626.6 407.7 618 429.2 609.5 454.9 609.5 472.1 618 497.8 622.3 506.4 622.3 510.7 622.3 515 622.3 519.3 622.3 523.6 618 532.2 613.8 540.8 609.4 540.7 587.9 545 557.9 549.3 540.8 549.3 519.3 566.5 506.4 575.1 497.9 583.7 489.3 596.6 485 605.2 480.7 609.4 476.4 626.6 467.8 643.8 467.8 643.8 459.2 648.1 450.6 652.3 446.3 652.4 437.7 643.8 437.7 643.8 429.2 639.5 424.9 635.2L420.6 635.2C399.2 622.4 382 618 360.5 618 339.1 618 321.9 622.4 300.4 635.2L300.4 643.8C300.4 643.8 291.8 648 287.5 652.3 278.9 656.6 274.6 656.7 266.1 656.7 257.5 652.4 253.3 652.4 249 635.2 240.4 618.1 240.3 613.7 236.1 605.1 227.5 592.3 218.9 583.7 206 575.1 184.6 558 167.3 553.7 137.3 553.7 120.1 553.7 115.9 549.3 107.3 540.8 103 536.5 103 532.2 103 523.6 103 515 103 515.1 107.3 506.5 111.6 480.7 115.9 463.5 107.3 437.7 98.7 416.3 90.1 399.2 72.9 382 64.3 377.7 64.4 373.4 60.1 373.4 51.5 364.8 47.2 360.5 47.2 351.9 47.2 343.3 47.2 339 60.1 330.4 60.1 330.4 64.3 326.2 72.9 321.9 90.1 304.7 98.7 291.9 107.3 270.4 115.9 244.7 115.9 227.4 107.3 201.7 103 188.8 103 184.5 103 180.2 103 171.6 103 171.7 107.3 163.1 111.6 154.5 115.8 154.5 137.3 150.2 167.3 145.9 184.6 145.9 206 128.8 218.9 120.2 227.5 111.6 236.1 98.7 240.3 90.2 240.4 85.8 249 72.9 253.3 55.8 257.5 51.5 266.1 51.5 274.6 47.2 278.9 47.2 287.5 55.8 287.5 55.8 296.1 60.1 300.4 64.4L304.7 64.4C326.2 73 343.3 77.3 364.8 77.3 386.3 77.3 403.5 73 424.9 60.1 424.9 60.1 433.4 55.8 437.7 51.5 446.3 47.2 450.6 47.2 459.2 47.2ZM364.8 111.6C231.8 111.6 124.5 218.9 124.5 351.9 124.5 484.9 231.8 592.3 364.8 592.3 497.9 592.3 605.1 484.9 605.1 351.9 605.1 218.9 497.9 111.6 364.8 111.6ZM364.8 163.1C467.8 163.1 553.7 248.9 553.7 351.9 553.7 454.9 467.8 540.8 364.8 540.8 261.8 540.8 175.9 454.9 175.9 351.9 175.9 248.9 261.8 163.1 364.8 163.1ZM356.3 197.4C356.3 197.4 351.9 197.4 351.9 201.7L343.3 206 343.3 210.3 309 274.7 240.3 283.2 236.1 283.2 231.8 283.2C231.8 283.2 227.5 283.2 227.5 287.5L223.1 287.5 218.9 291.9 218.9 296.2 218.9 300.4C214.6 309 214.6 313.3 214.6 313.3 214.6 317.6 214.6 317.6 218.9 321.9 218.9 321.9 218.9 326.2 223.1 326.2L223.1 330.4 274.7 382 261.8 450.6 261.8 454.9 261.8 459.2 261.8 463.6 261.8 467.8 266.1 472.1C266.1 472.1 266.1 476.4 270.4 476.4 270.4 476.4 274.7 476.4 274.7 480.7L279 480.7 283.2 480.7 287.5 480.7 291.9 480.7 296.2 480.7 360.5 446.4 424.9 480.7 429.2 480.7 433.5 480.7 437.7 480.7 442.1 480.7C442.1 480.7 446.4 480.7 446.4 476.4L450.6 476.4C450.6 476.4 454.9 476.4 454.9 472.1L459.2 467.8 459.2 463.6 459.2 459.2 459.2 454.9 459.2 450.6 446.4 382 497.8 330.4 497.8 326.2C497.8 326.2 497.8 321.9 502.1 321.9L502.1 317.6 502.1 313.3 502.1 309 502.1 304.7 502.1 300.4C502.1 300.4 502.1 296.2 497.8 296.2L493.6 296.2C493.6 296.2 489.3 296.2 489.3 291.9L485 291.9 480.7 291.9 420.6 274.7 390.5 210.3 390.5 206C390.5 206 390.6 201.7 386.3 201.7L382 197.4 377.7 197.4 373.4 197.4 364.8 197.4 360.5 197.4 356.3 197.4ZM369.1 283.2L382 313.3C382 313.3 382 317.6 386.3 317.6L386.3 321.9C386.3 321.9 390.5 321.9 390.5 326.2L394.8 326.2 429.2 330.4 407.7 351.9 403.5 356.3 403.5 360.5 403.5 364.8 403.5 369.1 407.7 399.2 377.7 390.5 373.4 390.5 369.1 390.5 364.8 390.5 360.5 390.5 356.3 390.5 326.2 407.7 330.4 377.7 330.4 373.4 330.4 369.1 330.4 364.8 330.4 360.5C330.4 360.5 330.5 356.3 326.2 356.3L300.4 330.4 330.4 326.2 334.8 326.2 339.1 326.2C339.1 326.2 343.3 326.2 343.3 321.9 343.3 321.9 347.6 321.9 347.6 317.6L351.9 313.3 369.1 283.2ZM188.9 626.6C193.1 635.2 193.1 635.2 201.7 648.1 214.6 673.8 223.2 691 253.2 699.6 270.4 703.9 283.3 703.9 296.2 699.6L339.1 789.7 279 918.5 214.6 845.5 210.3 841.2 206 836.9C206 836.9 201.7 836.9 201.7 832.6L197.4 832.6 193.1 832.6 90.1 841.2 188.9 626.6ZM536.5 630.9L630.9 845.5 527.9 836.9 523.6 836.9 519.3 836.9 515 836.9C515 836.9 510.7 836.9 510.7 841.2L506.5 845.5 446.4 927 343.3 682.4C347.6 678.1 356.2 678.1 364.8 678.1 377.7 678.1 386.3 682.4 399.2 691 399.2 691 403.4 695.3 412 699.6 433.5 712.5 454.9 716.7 476.4 708.2 506.4 699.6 515.1 682.4 527.9 656.7 532.2 643.8 536.5 639.5 536.5 635.2L536.5 630.9Z",
        "width": 730
      },
      "search": [
        "gwarancja_icon"
      ]
    }
  ]
}